// Jest Snapshot v1, https://goo.gl/fbAQLP

exports[`Header component renders the header component with a navbar and link 1`] = `
<header>
  <b-navbar-stub
    class="header gl-h-8 gl-z-index-2 gl-display-flex gl-justify-content-space-between gl-fixed gl-bg-theme-indigo-900 gl-px-5 gl-mb-0 gl-border-b-solid gl-border-b-1 gl-border-gray-200 gl-top-0 gl-left-0 gl-right-0"
    data-qa-selector="navbar"
    fixed=""
    tag="nav"
    type="light"
  >
    <gl-logo-stub />
     
    <div
      class="gl-display-inline-flex gl-align-items-center"
    >
      <b-link-stub
        class="gl-link gl-p-3 gl-transition-slow gl-text-decoration-none gl-font-weight-bold theme-indigo-200"
        event="click"
        href="https://support.gitlab.com/hc/en-us/requests/new"
        routertag="a"
      >
        Contact support
      </b-link-stub>
    </div>
  </b-navbar-stub>
</header>
`;
