{
    "Version": "2012-10-17",
    "Statement": [
        {
            "Sid": "AllowS3BucketUpdate",
            "Effect": "Allow",
            "Action": [
                "s3:DeleteObject",
                "s3:GetBucketLocation",
                "s3:PutObject",
                "s3:ListBucket",
                "s3:ListBuckets",
                "s3:DeleteBucket",
                "s3:GetBucketWebsite",
                "s3:PutBucketWebsite",
                "s3:PutBucketPolicy",
                "s3:GetBucketPolicy"
            ],
            "Resource": [
                "arn:aws:s3:::S3_BUCKET_NAME",
                "arn:aws:s3:::S3_BUCKET_NAME/*"
            ]
        }
    ]
}
